{
  "name": "htmlOutlook",
  "description": "Process for sending html emails",
  "main": "Sending emails w html.xaml",
  "dependencies": {
    "UiPath.Excel.Activities": "2.6.2",
    "UiPath.Mail.Activities": "1.5.0",
    "UiPath.System.Activities": "19.6.0",
    "UiPath.UIAutomation.Activities": "19.6.0"
  },
  "schemaVersion": "3.2",
  "studioVersion": "19.6.0.0",
  "projectVersion": "1.0.0",
  "runtimeOptions": {
    "autoDispose": false,
    "isPausable": true,
    "excludedLoggedData": [
      "Private:*",
      "*password*"
    ]
  },
  "projectType": "Library",
  "expressionLanguage": "VisualBasic",
  "libraryOptions": {
    "includeOriginalXaml": false,
    "privateWorkflows": []
  },
  "webServices": []
}